<?xml version="1.0" encoding="utf-8"?>
<!-- Generator: Adobe Illustrator 25.2.0, SVG Export Plug-In . SVG Version: 6.00 Build 0)  -->
<svg version="1.1" id="Ebene_1" xmlns="http://www.w3.org/2000/svg" xmlns:xlink="http://www.w3.org/1999/xlink" x="0px" y="0px"
	 viewBox="0 0 314.6 92.4" style="enable-background:new 0 0 314.6 92.4;" xml:space="preserve">
<style type="text/css">
	.st0{fill-rule:evenodd;clip-rule:evenodd;}
	.st1{fill-rule:evenodd;clip-rule:evenodd;fill:#892890;}
	.st2{clip-path:url(#SVGID_2_);}
	.st3{clip-path:url(#SVGID_4_);fill:#FFFFFF;}
	.st4{clip-path:url(#SVGID_4_);fill:#F6892A;}
	.st5{clip-path:url(#SVGID_4_);fill:#121617;}
	.st6{clip-path:url(#SVGID_4_);fill:#F79323;}
</style>
<g>
	
		<rect x="14.9" y="-12.5" transform="matrix(0.9989 -4.788859e-02 4.788859e-02 0.9989 -1.1244 7.8582)" class="st0" width="297.1" height="79.8"/>
	
		<rect x="7.8" y="-11.8" transform="matrix(0.9986 5.264861e-02 -5.264861e-02 0.9986 1.5464 -7.7455)" class="st1" width="279.9" height="74.6"/>
	
		<rect x="16.3" y="-65.4" transform="matrix(0.9858 -0.1679 0.1679 0.9858 5.7377 24.2886)" class="st0" width="260.4" height="87.1"/>
	<g>
		<g>
			<defs>
				<rect id="SVGID_1_" x="44.1" y="9.2" width="152" height="63.4"/>
			</defs>
			<clipPath id="SVGID_2_">
				<use xlink:href="#SVGID_1_"  style="overflow:visible;"/>
			</clipPath>
			<g class="st2">
				<defs>
					<rect id="SVGID_3_" x="44.1" y="9.2" width="152" height="63.4"/>
				</defs>
				<clipPath id="SVGID_4_">
					<use xlink:href="#SVGID_3_"  style="overflow:visible;"/>
				</clipPath>
				<path class="st3" d="M99.5,40.9c0,13.1-10.6,23.8-23.8,23.8C62.7,64.7,52,54,52,40.9c0-13.1,10.6-23.8,23.8-23.8
					C88.9,17.2,99.5,27.8,99.5,40.9"/>
				<path class="st4" d="M98.3,40.9c0,12.4-10.1,22.5-22.5,22.5c-12.4,0-22.5-10.1-22.5-22.5c0-12.4,10.1-22.5,22.5-22.5
					C88.2,18.4,98.3,28.5,98.3,40.9"/>
				<path class="st3" d="M75.8,23.8c-9.5,0-17.1,7.7-17.1,17.1c0,9.4,7.7,17.1,17.1,17.1c9.4,0,17.1-7.7,17.1-17.1
					C92.9,31.5,85.2,23.8,75.8,23.8"/>
				<path class="st3" d="M75.8,25.1C67,25.1,60,32.2,60,40.9c0,8.7,7.1,15.8,15.8,15.8c8.7,0,15.8-7.1,15.8-15.8
					C91.6,32.2,84.5,25.1,75.8,25.1"/>
				<path class="st5" d="M71.3,44.9c0.2-0.1,0.4-0.2,0.6-0.3c2.6-1.1,3.9-3.1,3.9-5.5c0-2.4-1.8-4.5-4.5-5.3V44.9z M76.5,32
					c5.8,0.2,9.2,2.8,9.2,6.7c0,3.5-2.2,5.5-9.4,6.8c-5.4,1-6.8,2.2-6.8,4.5c0,1.4,0.5,2.4,1.2,3.3c-1.2-0.8-2.2-2.3-2.2-4.1
					c0-1.1,0.3-2.1,1-3V33.5c-0.2,0-0.4,0-0.5,0c-0.1,0-0.2,0-0.2,0c-0.1,0-0.1-0.1,0-0.2c0.2-0.1,0.5-0.2,0.8-0.3v-2.7
					c0-0.1,0-0.1,0.1-0.1h1.4c0.1,0,0.1,0,0.1,0.1v2.2C73,32.2,75,32,76.5,32"/>
				<path class="st5" d="M75.8,26.6c7.9,0,14.3,6.4,14.3,14.3c0,7.9-6.4,14.3-14.3,14.3c-7.9,0-14.3-6.4-14.3-14.3
					C61.5,33,67.9,26.6,75.8,26.6 M75.8,25.1C67,25.1,60,32.2,60,40.9c0,8.7,7.1,15.8,15.8,15.8c8.7,0,15.8-7.1,15.8-15.8
					C91.6,32.2,84.5,25.1,75.8,25.1"/>
				<path class="st3" d="M106.3,36.2c0.5,0,0.8-0.3,0.8-0.7v-0.3c0-0.4-0.3-0.7-0.8-0.7h-1.2c-0.1,0-0.1,0-0.1,0.1v1.4
					c0,0.1,0,0.1,0.1,0.1H106.3z M103.3,40.9c-0.1,0-0.1,0-0.1-0.1v-7.7c0-0.1,0-0.1,0.1-0.1h2.9c1.5,0,2.6,0.8,2.6,2.2v0.4
					c0,1.2-1.1,2-2.6,2h-1.1c-0.1,0-0.1,0.1-0.1,0.1v3c0,0.1,0,0.1-0.1,0.1L103.3,40.9z"/>
				<path class="st3" d="M154,36.2c0.5,0,0.8-0.3,0.8-0.7v-0.3c0-0.4-0.3-0.7-0.8-0.7h-1.2c-0.1,0-0.1,0-0.1,0.1v1.4
					c0,0.1,0,0.1,0.1,0.1H154z M151.1,40.9c-0.1,0-0.1,0-0.1-0.1v-7.7c0-0.1,0-0.1,0.1-0.1h2.9c1.5,0,2.6,0.8,2.6,2.2v0.4
					c0,1.2-1.1,2-2.6,2h-1.1c-0.1,0-0.1,0.1-0.1,0.1v3c0,0.1,0,0.1-0.1,0.1L151.1,40.9z"/>
				<path class="st3" d="M110.5,40.9c-0.1,0-0.1,0-0.1-0.1v-7.7c0-0.1,0-0.1,0.1-0.1h1.5c0,0,0.1,0,0.1,0.1v7.7c0,0.1,0,0.1-0.1,0.1
					H110.5z"/>
				<path class="st3" d="M186.5,40.9c-0.1,0-0.1,0-0.1-0.1v-7.7c0-0.1,0-0.1,0.1-0.1h1.5c0,0,0.1,0,0.1,0.1v7.7c0,0.1,0,0.1-0.1,0.1
					H186.5z"/>
				<path class="st3" d="M118,36.2c0.5,0,0.8-0.3,0.8-0.7v-0.2c0-0.4-0.3-0.8-0.8-0.8h-1.5c-0.1,0-0.1,0-0.1,0.1v1.4
					c0,0.1,0,0.1,0.1,0.1L118,36.2z M114.7,40.9c-0.1,0-0.1,0-0.1-0.1v-7.7c0-0.1,0-0.1,0.1-0.1h3.3c1.5,0,2.6,0.9,2.6,2.4v0.1
					c0,0.8-0.4,1.4-1,1.7c-0.1,0-0.1,0.1-0.1,0.1c0,0,0,0.1,0,0.1l1.3,3.3c0,0,0,0,0,0.1c0,0,0,0.1-0.1,0.1H119c0,0-0.1,0-0.1-0.1
					l-1.2-3.1c0-0.1-0.1-0.1-0.1-0.1h-1.1c-0.1,0-0.1,0.1-0.1,0.1v3c0,0.1,0,0.1-0.1,0.1H114.7z"/>
				<path class="st3" d="M168.4,36.2c0.5,0,0.8-0.3,0.8-0.7v-0.2c0-0.4-0.3-0.8-0.8-0.8h-1.5c-0.1,0-0.1,0-0.1,0.1v1.4
					c0,0.1,0,0.1,0.1,0.1L168.4,36.2z M165.1,40.9c-0.1,0-0.1,0-0.1-0.1v-7.7c0-0.1,0-0.1,0.1-0.1h3.3c1.5,0,2.6,0.9,2.6,2.4v0.1
					c0,0.8-0.4,1.4-1,1.7c-0.1,0-0.1,0.1-0.1,0.1c0,0,0,0.1,0,0.1l1.3,3.3c0,0,0,0,0,0.1c0,0,0,0.1-0.1,0.1h-1.6c0,0-0.1,0-0.1-0.1
					l-1.2-3.1c0-0.1-0.1-0.1-0.1-0.1h-1.1c-0.1,0-0.1,0.1-0.1,0.1v3c0,0.1,0,0.1-0.1,0.1H165.1z"/>
				<path class="st3" d="M130.4,40.9c-0.1,0-0.1,0-0.1-0.1v-6.1c0-0.1,0-0.1-0.2-0.1h-1.5c-0.1,0-0.1,0-0.1-0.1v-1.3
					c0-0.1,0-0.1,0.1-0.1h5.1c0,0,0.1,0,0.1,0.1v1.3c0,0.1,0,0.1-0.1,0.1h-1.5c-0.1,0-0.2,0-0.2,0.1v6.1c0,0.1,0,0.1-0.1,0.1H130.4z
					"/>
				<path class="st3" d="M174.2,40.9c-0.1,0-0.1,0-0.1-0.1v-6.1c0-0.1,0-0.1-0.2-0.1h-1.5c-0.1,0-0.1,0-0.1-0.1v-1.3
					c0-0.1,0-0.1,0.1-0.1h5.1c0,0,0.1,0,0.1,0.1v1.3c0,0.1,0,0.1-0.1,0.1H176c-0.1,0-0.2,0-0.2,0.1v6.1c0,0.1,0,0.1-0.1,0.1H174.2z"
					/>
				<path class="st3" d="M135.5,40.9c-0.1,0-0.1,0-0.1-0.1v-7.7c0-0.1,0-0.1,0.1-0.1h5c0.1,0,0.1,0,0.1,0.1v1.3c0,0.1,0,0.1-0.1,0.1
					h-3.2c-0.1,0-0.1,0-0.1,0.1V36c0,0.1,0,0.1,0.1,0.1h2.6c0.1,0,0.1,0,0.1,0.1v1.3c0,0.1-0.1,0.1-0.1,0.1h-2.6
					c-0.1,0-0.1,0.1-0.1,0.1v1.4c0,0.1,0,0.1,0.1,0.1h3.2c0.1,0,0.1,0,0.1,0.1v1.3c0,0.1,0,0.1-0.1,0.1L135.5,40.9z"/>
				<path class="st3" d="M179.3,40.9c-0.1,0-0.1,0-0.1-0.1v-7.7c0-0.1,0-0.1,0.1-0.1h5c0.1,0,0.1,0,0.1,0.1v1.3c0,0.1,0,0.1-0.1,0.1
					h-3.2c-0.1,0-0.1,0-0.1,0.1V36c0,0.1,0,0.1,0.1,0.1h2.6c0.1,0,0.1,0,0.1,0.1v1.3c0,0.1-0.1,0.1-0.1,0.1h-2.6
					c-0.1,0-0.1,0.1-0.1,0.1v1.4c0,0.1,0,0.1,0.1,0.1h3.2c0.1,0,0.1,0,0.1,0.1v1.3c0,0.1,0,0.1-0.1,0.1L179.3,40.9z"/>
				<path class="st3" d="M142.7,40.9c-0.1,0-0.1,0-0.1-0.1v-7.7c0-0.1,0-0.1,0.1-0.1h1.3c0.1,0,0.1,0,0.2,0.1l2.2,4.1
					c0.1,0.3,0.3,0.6,0.3,0.6h0c0-0.1,0-1.2,0-2.3v-2.3c0-0.1,0-0.1,0.1-0.1h1.5c0.1,0,0.1,0,0.1,0.1v7.7c0,0.1,0,0.1-0.1,0.1h-1.3
					c0,0-0.1,0-0.1-0.1l-2.2-4c-0.1-0.3-0.3-0.5-0.3-0.5h0c0,0.1,0.1,1.2,0.1,2.2v2.3c0,0.1-0.1,0.1-0.1,0.1H142.7z"/>
				<path class="st3" d="M124.2,38.3c-0.1,0-0.1,0-0.1-0.1l0.7-2.8l0-0.1h0h0.2h0l0,0.1l0.7,2.8c0,0.1,0,0.1-0.1,0.1H124.2z
					 M126.1,39.6c0.1,0,0.1,0,0.1,0.1l0.3,1.1c0,0.1,0.1,0.1,0.1,0.1h1.4c0.1,0,0.1,0,0.1-0.1c0,0,0,0,0-0.1l-0.1-0.2l-2.2-7.5
					c0-0.1,0-0.1-0.1-0.1h-1.7c-0.1,0-0.1,0-0.1,0.1l-2.2,7.5l-0.1,0.2c0,0,0,0,0,0.1c0,0.1,0,0.1,0.1,0.1h1.4c0.1,0,0.1,0,0.1-0.1
					l0.3-1.1c0-0.1,0-0.1,0.1-0.1L126.1,39.6z"/>
				<path class="st3" d="M159.2,38.3c-0.1,0-0.1,0-0.1-0.1l0.7-2.8l0-0.1h0h0.2h0l0,0.1l0.7,2.8c0,0.1,0,0.1-0.1,0.1H159.2z
					 M161.1,39.6c0.1,0,0.1,0,0.1,0.1l0.3,1.1c0,0.1,0.1,0.1,0.1,0.1h1.4c0.1,0,0.1,0,0.1-0.1c0,0,0,0,0-0.1l-0.1-0.2l-2.2-7.5
					c0-0.1,0-0.1-0.1-0.1h-1.7c-0.1,0-0.1,0-0.1,0.1l-2.2,7.5l-0.1,0.2c0,0,0,0,0,0.1c0,0.1,0,0.1,0.1,0.1h1.4c0.1,0,0.1,0,0.1-0.1
					l0.3-1.1c0-0.1,0-0.1,0.1-0.1H161.1z"/>
				<path class="st6" d="M103.7,43.7h1.7c1.9,0,2.6,1,2.6,2.4c0,2.5-1.5,3.7-3.6,3.7h-1.6L103.7,43.7z M104.3,44.3l-0.8,4.9h1
					c1.8,0,2.6-1.2,2.6-2.9c0-1.1-0.5-2-2-2L104.3,44.3z"/>
				<path class="st6" d="M110.1,49.9c-1.1,0-1.5-0.8-1.5-1.9c0-1.8,1.1-3,2.3-3c0.8,0,1.4,0.5,1.4,1.2c0,1.2-1.1,1.5-2.2,1.5
					c-0.4,0-0.8-0.1-0.8-0.1c-0.1,1,0.2,1.6,0.9,1.6c0.5,0,0.9-0.1,1.4-0.3l0.2,0.5C111.4,49.7,110.8,49.9,110.1,49.9 M110.4,47.2
					c0.7,0,1.3-0.2,1.3-0.7c0-0.5-0.4-0.7-0.9-0.7c-0.7,0-1.1,0.5-1.3,1.4C109.5,47.1,110,47.2,110.4,47.2"/>
				<path class="st6" d="M115.7,49.8l0.1-0.5c-0.3,0.3-0.8,0.6-1.4,0.6c-0.9,0-1.5-0.6-1.3-1.7l0.5-3h0.7l-0.4,2.9
					c-0.1,0.8,0.2,1.2,0.8,1.2c0.5,0,1-0.3,1.3-0.7l0.5-3.4h0.7l-0.7,4.6L115.7,49.8L115.7,49.8L115.7,49.8z"/>
				<path class="st6" d="M120,49.7c-0.2,0.1-0.6,0.2-0.9,0.2c-0.9,0-1.1-0.5-1-1.5l0.4-2.6h-0.8l0.1-0.5l0.8-0.1l0.3-1.3h0.6
					l-0.2,1.3h1.4l-0.1,0.6h-1.4l-0.4,2.6c-0.1,0.6,0,0.9,0.5,0.9c0.2,0,0.4-0.1,0.6-0.1L120,49.7z"/>
				<path class="st6" d="M123.8,46.1c-0.3-0.2-0.6-0.3-1.1-0.3c-0.4,0-0.8,0.2-0.8,0.6c0,0.8,1.8,1,1.8,2c0,0.9-0.8,1.5-1.9,1.5
					c-0.5,0-1-0.2-1.3-0.5l0.3-0.6c0.3,0.2,0.7,0.4,1.1,0.4c0.5,0,1-0.3,1-0.8c0-0.8-1.8-0.9-1.8-2c0-0.8,0.7-1.4,1.7-1.4
					c0.5,0,1,0.2,1.2,0.4L123.8,46.1z"/>
				<path class="st6" d="M128.1,46c-0.3-0.2-0.7-0.3-1.1-0.3c-0.8,0-1.6,0.7-1.6,2.1c0,0.8,0.4,1.4,1.1,1.4c0.4,0,0.8-0.1,1.1-0.3
					l0.1,0.5c-0.4,0.2-1,0.4-1.4,0.4c-1.2,0-1.7-0.9-1.7-1.9c0-1.9,1.2-2.9,2.5-2.9c0.4,0,0.9,0.1,1.2,0.4L128.1,46z"/>
				<path class="st6" d="M132.1,49.8h-0.7l0.4-2.7c0.1-0.7,0-1.4-0.7-1.4c-0.5,0-1.1,0.5-1.3,0.9l-0.5,3.1h-0.7l1-6.4h0.7l-0.4,2.3
					c0.5-0.5,0.9-0.7,1.4-0.7c1.1,0,1.4,0.8,1.2,1.8L132.1,49.8z"/>
				<polygon class="st6" points="134.4,43.5 135.1,43.5 134.1,49.8 133.4,49.8 				"/>
				<path class="st6" d="M138.5,48.9c-0.4,0.6-0.9,1-1.6,1c-1,0-1.4-0.8-1.4-1.8c0-1.6,0.8-3,2.3-3c0.5,0,1,0.2,1.2,0.5l0.1-0.4h0.5
					l-0.5,2.5l-0.1,2.1h-0.6L138.5,48.9z M138.5,47.7l0.3-1.3c-0.2-0.4-0.7-0.7-1.2-0.7c-0.9,0-1.3,1.1-1.3,2.2
					c0,0.6,0.2,1.3,0.8,1.3C137.6,49.3,138.2,48.6,138.5,47.7"/>
				<path class="st6" d="M143.1,49.8l0.4-2.7c0.1-0.7,0-1.3-0.8-1.3c-0.6,0-1.1,0.4-1.4,0.9l-0.5,3.1h-0.7l0.7-4.6h0.5l0,0.6
					c0.3-0.4,0.8-0.7,1.5-0.7c1.1,0,1.4,0.8,1.3,1.9l-0.4,2.8L143.1,49.8z"/>
				<path class="st6" d="M148.1,48.9c-0.4,0.6-0.9,1.1-1.6,1.1c-1,0-1.4-0.8-1.4-1.8c0-1.6,0.8-3,2.3-3c0.4,0,0.9,0.2,1.1,0.4
					l0.3-2.1h0.7l-0.7,4.3l-0.1,2.1h-0.6L148.1,48.9z M148.2,47.6l0.2-1.2c-0.2-0.4-0.6-0.7-1.1-0.7c-0.9,0-1.3,1.1-1.3,2.2
					c0,0.6,0.2,1.3,0.8,1.3C147.3,49.3,148,48.5,148.2,47.6"/>
			</g>
		</g>
	</g>
</g>
</svg>
